module github.com/pasdam/go-rest-util

replace github.com/pasdam/go-rest-util/pkg => ./pkg

go 1.14

require (
	github.com/davecgh/go-spew v1.1.1 // indirect
	github.com/kr/text v0.2.0 // indirect
	github.com/pasdam/mockit v0.0.0-20201218205457-c54f12cbcca0
	github.com/stretchr/testify v1.7.1
	gopkg.in/check.v1 v1.0.0-20201130134442-10cb98267c6c // indirect
	gopkg.in/yaml.v3 v3.0.0-20200615113413-eeeca48fe776 // indirect
)
